…
``` r
#multimodel mean & sd
rel_effort_error<-effort %>% group_by(Region, Country,Sector,Gear, Length_Category) %>%
  summarise(total_errNV = sum(NVerr), total_errGT = sum(GTerr),total_errP=sum(Perr),mean_errNV = mean(NVerr), mean_errGT = mean(GTerr),mean_errP=mean(Perr))
```

    ## `summarise()` has grouped output by 'Region', 'Country', 'Sector', 'Gear'. You
    ## can override using the `.groups` argument.

``` r
print(rel_effort_error)
```

    ## # A tibble: 5,909 × 11
    ## # Groups:   Region, Country, Sector, Gear [2,553]
    ##    Region   Country Sector Gear  Lengt…¹ total…² total…³ total…⁴ mean_…⁵ mean_…⁶
    ##    <chr>    <fct>   <fct>  <fct> <chr>     <dbl>   <dbl>   <dbl>   <dbl>   <dbl>
    ##  1 Austral… AUS     I      Dred… 12-24m     5.02   0.614  0.181   0.0738 0.00903
    ##  2 Austral… AUS     I      Dred… 24-50m     5.02   0.237  0.0223  0.0738 0.00348
    ##  3 Austral… AUS     I      Dred… 6-12m      5.02   0.714  0.170   0.0738 0.0105 
    ##  4 Austral… AUS     I      Dred… Less t…    5.02  43.2    5.53    0.0738 0.635  
    ##  5 Austral… AUS     I      Gill… 12-24m     5.02   0.856  0.160   0.0738 0.0126 
    ##  6 Austral… AUS     I      Gill… 6-12m      5.02   1.66   0.117   0.0738 0.0243 
    ##  7 Austral… AUS     I      Gill… Less t…    4.68  40.4    5.00    0.0720 0.622  
    ##  8 Austral… AUS     I      Line… 12-24m    10.0    1.51   0.240   0.0738 0.0111 
    ##  9 Austral… AUS     I      Line… 24-50m     5.02   0.134  0.0388  0.0738 0.00196
    ## 10 Austral… AUS     I      Line… 6-12m     10.0    3.61   0.245   0.0738 0.0265 
    ## # … with 5,899 more rows, 1 more variable: mean_errP <dbl>, and abbreviated
    ## #   variable names ¹​Length_Category, ²​total_errNV, ³​total_errGT, ⁴​total_errP,
    ## #   ⁵​mean_errNV, ⁶​mean_errGT
…
